<?xml version="1.0" encoding="utf-8"?>
<!-- Generator: Adobe Illustrator 23.1.1, SVG Export Plug-In . SVG Version: 6.00 Build 0)  -->
<svg version="1.1" id="Layer_1" xmlns="http://www.w3.org/2000/svg" xmlns:xlink="http://www.w3.org/1999/xlink" x="0px" y="0px"
	 viewBox="0 0 81 18" style="enable-background:new 0 0 81 18;" xml:space="preserve">
<style type="text/css">
	.st0{fill:url(#Path_754_1_);}
	.st1{fill:#FFFFFF;}
	.st2{font-family:'Helvetica-Bold';}
	.st3{font-size:11.5374px;}
	.st4{font-size:12px;}
</style>
<title>Group 6</title>
<desc>Created with Sketch.</desc>
<linearGradient id="Path_754_1_" gradientUnits="userSpaceOnUse" x1="-490.6732" y1="36.1708" x2="-491.0577" y2="36.9891" gradientTransform="matrix(22.709 0 0 22.709 11158.4258 -824.0003)">
	<stop  offset="0" style="stop-color:#6AF4FF"/>
	<stop  offset="1" style="stop-color:#1566FF"/>
</linearGradient>
<path id="Path_754" class="st0" d="M4.7,0.1H16c1.7,0,3.1,1.4,3.1,3.1v11.3c0,1.7-1.4,3.1-3.1,3.1H4.7c-1.7,0-3.1-1.4-3.1-3.1V3.2
	C1.6,1.5,3,0.1,4.7,0.1z"/>
<g id="Group_1115" transform="translate(4.326 5.117)">
	<text transform="matrix(1 0 0 1 1.6506 7.4896)" class="st1 st2 st3">A</text>
</g>
<text transform="matrix(1 0 0 1 22.1319 13.2169)" class="st1 st2 st4">Attendant</text>
</svg>
